G04 #@! TF.GenerationSoftware,KiCad,Pcbnew,5.0.0-4.fc29*
G04 #@! TF.CreationDate,2018-11-21T19:27:27+00:00*
G04 #@! TF.ProjectId,control-pcb,636F6E74726F6C2D7063622E6B696361,rev?*
G04 #@! TF.SameCoordinates,Original*
G04 #@! TF.FileFunction,Profile,NP*
%FSLAX46Y46*%
G04 Gerber Fmt 4.6, Leading zero omitted, Abs format (unit mm)*
G04 Created by KiCad (PCBNEW 5.0.0-4.fc29) date Wed Nov 21 19:27:27 2018*
%MOMM*%
%LPD*%
G01*
G04 APERTURE LIST*
%ADD10C,0.150000*%
G04 APERTURE END LIST*
D10*
X21000000Y-49000000D02*
X21000000Y-113000000D01*
X146000000Y-49000000D02*
X21000000Y-49000000D01*
X146000000Y-113000000D02*
X146000000Y-49000000D01*
X21000000Y-113000000D02*
X146000000Y-113000000D01*
M02*
