EESchema Schematic File Version 4
LIBS:control-pcb-cache
EELAYER 26 0
EELAYER END
$Descr A4 11693 8268
encoding utf-8
Sheet 2 2
Title ""
Date ""
Rev ""
Comp ""
Comment1 ""
Comment2 ""
Comment3 ""
Comment4 ""
$EndDescr
Text Label 2150 2425 0    50   ~ 0
IN0
Wire Wire Line
	2275 2425 2150 2425
Wire Wire Line
	2625 2625 2825 2625
Wire Wire Line
	2825 2425 2575 2425
$Comp
L Device:R R?
U 1 1 5CA69F15
P 2425 2425
F 0 "R?" V 2218 2425 50  0000 C CNN
F 1 "220" V 2309 2425 50  0000 C CNN
F 2 "Resistor_SMD:R_0805_2012Metric_Pad1.15x1.40mm_HandSolder" V 2355 2425 50  0001 C CNN
F 3 "~" H 2425 2425 50  0001 C CNN
	1    2425 2425
	0    1    1    0   
$EndComp
$Comp
L Isolator:LTV-847 U?
U 1 1 5CA69F1C
P 3125 2525
F 0 "U?" H 3125 2850 50  0000 C CNN
F 1 "LTV-847" H 3125 2759 50  0000 C CNN
F 2 "Package_DIP:DIP-16_W7.62mm" H 2925 2325 50  0001 L CIN
F 3 "http://optoelectronics.liteon.com/upload/download/DS-70-96-0016/LTV-8X7%20series.PDF" H 3125 2525 50  0001 L CNN
	1    3125 2525
	1    0    0    -1  
$EndComp
$Comp
L control-pcb-rescue:SVD5865NLT4G-control-pcb Q?
U 1 1 5CA89F58
P 4625 2650
AR Path="/5CA89F58" Ref="Q?"  Part="1" 
AR Path="/5CA2771E/5CA89F58" Ref="Q?"  Part="1" 
F 0 "Q?" H 4755 2721 50  0000 L CNN
F 1 "SVD5865NLT4G" H 4755 2630 50  0000 L CNN
F 2 "Package_TO_SOT_SMD:TO-252-2" H 4550 2675 50  0001 C CNN
F 3 "http://www.onsemi.com/pub/Collateral/NVD5865NL-D.PDF" H 4550 2675 50  0001 C CNN
	1    4625 2650
	1    0    0    -1  
$EndComp
$Comp
L Device:R R?
U 1 1 5CABC0C2
P 3675 2875
AR Path="/5CABC0C2" Ref="R?"  Part="1" 
AR Path="/5CA2771E/5CABC0C2" Ref="R?"  Part="1" 
F 0 "R?" H 3745 2921 50  0000 L CNN
F 1 "10k" H 3745 2830 50  0000 L CNN
F 2 "Resistor_SMD:R_0805_2012Metric_Pad1.15x1.40mm_HandSolder" V 3605 2875 50  0001 C CNN
F 3 "~" H 3675 2875 50  0001 C CNN
	1    3675 2875
	1    0    0    -1  
$EndComp
$Comp
L Device:LED D?
U 1 1 5CABC0C9
P 3825 1750
AR Path="/5CABC0C9" Ref="D?"  Part="1" 
AR Path="/5CA2771E/5CABC0C9" Ref="D?"  Part="1" 
F 0 "D?" V 3863 1633 50  0000 R CNN
F 1 "LED" V 3772 1633 50  0000 R CNN
F 2 "LED_SMD:LED_0805_2012Metric_Pad1.15x1.40mm_HandSolder" H 3825 1750 50  0001 C CNN
F 3 "~" H 3825 1750 50  0001 C CNN
	1    3825 1750
	0    1    1    0   
$EndComp
$Comp
L Device:R R?
U 1 1 5CABC0D0
P 3825 2125
AR Path="/5CABC0D0" Ref="R?"  Part="1" 
AR Path="/5CA2771E/5CABC0D0" Ref="R?"  Part="1" 
F 0 "R?" H 3895 2171 50  0000 L CNN
F 1 "680" H 3895 2080 50  0000 L CNN
F 2 "Resistor_SMD:R_0805_2012Metric_Pad1.15x1.40mm_HandSolder" V 3755 2125 50  0001 C CNN
F 3 "~" H 3825 2125 50  0001 C CNN
	1    3825 2125
	1    0    0    -1  
$EndComp
$Comp
L Diode:MRA4004T3G D?
U 1 1 5CABC0D7
P 4100 1950
AR Path="/5CABC0D7" Ref="D?"  Part="1" 
AR Path="/5CA2771E/5CABC0D7" Ref="D?"  Part="1" 
F 0 "D?" V 4054 2029 50  0000 L CNN
F 1 "MRA4004T3G" V 4145 2029 50  0000 L CNN
F 2 "Diode_SMD:D_SMA" H 4100 1775 50  0001 C CNN
F 3 "http://www.onsemi.com/pub_link/Collateral/MRA4003T3-D.PDF" H 4100 1950 50  0001 C CNN
	1    4100 1950
	0    1    1    0   
$EndComp
$Comp
L Device:R R?
U 1 1 5CABC0E5
P 5675 2425
AR Path="/5CABC0E5" Ref="R?"  Part="1" 
AR Path="/5CA2771E/5CABC0E5" Ref="R?"  Part="1" 
F 0 "R?" V 5882 2425 50  0000 C CNN
F 1 "1k" V 5791 2425 50  0000 C CNN
F 2 "Resistor_SMD:R_0805_2012Metric_Pad1.15x1.40mm_HandSolder" V 5605 2425 50  0001 C CNN
F 3 "~" H 5675 2425 50  0001 C CNN
	1    5675 2425
	-1   0    0    1   
$EndComp
$Comp
L Device:R R?
U 1 1 5CABC0EC
P 5675 2875
AR Path="/5CABC0EC" Ref="R?"  Part="1" 
AR Path="/5CA2771E/5CABC0EC" Ref="R?"  Part="1" 
F 0 "R?" V 5882 2875 50  0000 C CNN
F 1 "1k" V 5791 2875 50  0000 C CNN
F 2 "Resistor_SMD:R_0805_2012Metric_Pad1.15x1.40mm_HandSolder" V 5605 2875 50  0001 C CNN
F 3 "~" H 5675 2875 50  0001 C CNN
	1    5675 2875
	-1   0    0    1   
$EndComp
$Comp
L power:GNDS #PWR?
U 1 1 5CABC83F
P 2625 3150
F 0 "#PWR?" H 2625 2900 50  0001 C CNN
F 1 "GNDS" H 2630 2977 50  0000 C CNN
F 2 "" H 2625 3150 50  0001 C CNN
F 3 "" H 2625 3150 50  0001 C CNN
	1    2625 3150
	1    0    0    -1  
$EndComp
Wire Wire Line
	3425 2625 3675 2625
$Comp
L power:GNDPWR #PWR?
U 1 1 5CABCDFD
P 3675 3175
F 0 "#PWR?" H 3675 2975 50  0001 C CNN
F 1 "GNDPWR" H 3679 3021 50  0000 C CNN
F 2 "" H 3675 3125 50  0001 C CNN
F 3 "" H 3675 3125 50  0001 C CNN
	1    3675 3175
	1    0    0    -1  
$EndComp
Wire Wire Line
	3675 3025 3675 3175
Wire Wire Line
	2625 2625 2625 3150
$Comp
L power:+12V #PWR?
U 1 1 5CABD459
P 5675 2125
F 0 "#PWR?" H 5675 1975 50  0001 C CNN
F 1 "+12V" H 5690 2298 50  0000 C CNN
F 2 "" H 5675 2125 50  0001 C CNN
F 3 "" H 5675 2125 50  0001 C CNN
	1    5675 2125
	1    0    0    -1  
$EndComp
$Comp
L power:GNDPWR #PWR?
U 1 1 5CABD47F
P 5675 3175
F 0 "#PWR?" H 5675 2975 50  0001 C CNN
F 1 "GNDPWR" H 5679 3021 50  0000 C CNN
F 2 "" H 5675 3125 50  0001 C CNN
F 3 "" H 5675 3125 50  0001 C CNN
	1    5675 3175
	1    0    0    -1  
$EndComp
Wire Wire Line
	5675 2275 5675 2125
Wire Wire Line
	5675 2725 5675 2625
Wire Wire Line
	5675 3175 5675 3025
Wire Wire Line
	5675 2625 5925 2625
Wire Wire Line
	5925 2625 5925 2500
Connection ~ 5675 2625
Wire Wire Line
	5675 2625 5675 2575
$Comp
L power:+6V #PWR?
U 1 1 5CABD7B6
P 5925 2500
F 0 "#PWR?" H 5925 2350 50  0001 C CNN
F 1 "+6V" H 5940 2673 50  0000 C CNN
F 2 "" H 5925 2500 50  0001 C CNN
F 3 "" H 5925 2500 50  0001 C CNN
	1    5925 2500
	1    0    0    -1  
$EndComp
$Comp
L power:+6V #PWR?
U 1 1 5CABD7DC
P 3625 2275
F 0 "#PWR?" H 3625 2125 50  0001 C CNN
F 1 "+6V" H 3640 2448 50  0000 C CNN
F 2 "" H 3625 2275 50  0001 C CNN
F 3 "" H 3625 2275 50  0001 C CNN
	1    3625 2275
	1    0    0    -1  
$EndComp
Wire Wire Line
	3425 2425 3625 2425
Wire Wire Line
	3625 2425 3625 2275
$Comp
L power:GNDPWR #PWR?
U 1 1 5CABE1BA
P 4650 3175
F 0 "#PWR?" H 4650 2975 50  0001 C CNN
F 1 "GNDPWR" H 4654 3021 50  0000 C CNN
F 2 "" H 4650 3125 50  0001 C CNN
F 3 "" H 4650 3125 50  0001 C CNN
	1    4650 3175
	1    0    0    -1  
$EndComp
Wire Wire Line
	4650 2825 4650 3175
$Comp
L pspice:INDUCTOR L?
U 1 1 5CABE9C3
P 4650 1950
F 0 "L?" V 4604 2028 50  0000 L CNN
F 1 "INDUCTOR" V 4695 2028 50  0000 L CNN
F 2 "" H 4650 1950 50  0001 C CNN
F 3 "~" H 4650 1950 50  0001 C CNN
	1    4650 1950
	0    1    1    0   
$EndComp
Wire Wire Line
	4100 2100 4100 2325
$Comp
L power:+12V #PWR?
U 1 1 5CABEDB1
P 4650 1450
F 0 "#PWR?" H 4650 1300 50  0001 C CNN
F 1 "+12V" H 4665 1623 50  0000 C CNN
F 2 "" H 4650 1450 50  0001 C CNN
F 3 "" H 4650 1450 50  0001 C CNN
	1    4650 1450
	1    0    0    -1  
$EndComp
Wire Wire Line
	4100 1550 4100 1800
Wire Wire Line
	3675 2625 3675 2725
Wire Wire Line
	3825 2275 3825 2325
Wire Wire Line
	3825 2325 4100 2325
Connection ~ 4100 2325
Wire Wire Line
	3825 1900 3825 1975
Wire Wire Line
	3825 1600 3825 1550
Wire Wire Line
	3825 1550 4100 1550
Connection ~ 4100 1550
Wire Wire Line
	3675 2625 4350 2625
Connection ~ 3675 2625
Wire Wire Line
	4650 2200 4650 2325
Wire Wire Line
	4650 1450 4650 1550
Wire Wire Line
	4100 1550 4650 1550
Connection ~ 4650 1550
Wire Wire Line
	4650 1550 4650 1700
Wire Wire Line
	4100 2325 4650 2325
Connection ~ 4650 2325
Wire Wire Line
	4650 2325 4650 2425
$EndSCHEMATC
