G04 #@! TF.GenerationSoftware,KiCad,Pcbnew,5.0.0-4.fc29*
G04 #@! TF.CreationDate,2018-11-21T18:22:53+00:00*
G04 #@! TF.ProjectId,pressure_sense_pcb,70726573737572655F73656E73655F70,rev?*
G04 #@! TF.SameCoordinates,Original*
G04 #@! TF.FileFunction,Copper,L2,Bot,Signal*
G04 #@! TF.FilePolarity,Positive*
%FSLAX46Y46*%
G04 Gerber Fmt 4.6, Leading zero omitted, Abs format (unit mm)*
G04 Created by KiCad (PCBNEW 5.0.0-4.fc29) date Wed Nov 21 18:22:53 2018*
%MOMM*%
%LPD*%
G01*
G04 APERTURE LIST*
G04 #@! TA.AperFunction,ComponentPad*
%ADD10C,6.000000*%
G04 #@! TD*
G04 #@! TA.AperFunction,ComponentPad*
%ADD11C,1.600000*%
G04 #@! TD*
G04 #@! TA.AperFunction,ComponentPad*
%ADD12O,1.600000X1.600000*%
G04 #@! TD*
G04 #@! TA.AperFunction,ComponentPad*
%ADD13R,1.600000X1.600000*%
G04 #@! TD*
G04 #@! TA.AperFunction,ComponentPad*
%ADD14O,1.500000X1.050000*%
G04 #@! TD*
G04 #@! TA.AperFunction,ComponentPad*
%ADD15R,1.500000X1.050000*%
G04 #@! TD*
G04 #@! TA.AperFunction,ComponentPad*
%ADD16R,2.400000X2.400000*%
G04 #@! TD*
G04 #@! TA.AperFunction,ComponentPad*
%ADD17C,2.400000*%
G04 #@! TD*
G04 #@! TA.AperFunction,ComponentPad*
%ADD18R,1.727200X1.727200*%
G04 #@! TD*
G04 #@! TA.AperFunction,ComponentPad*
%ADD19O,1.727200X1.727200*%
G04 #@! TD*
G04 APERTURE END LIST*
D10*
G04 #@! TO.P,REF\002A\002A,1*
G04 #@! TO.N,N/C*
X40000000Y-79000000D03*
G04 #@! TD*
G04 #@! TO.P,REF\002A\002A,1*
G04 #@! TO.N,N/C*
X125000000Y-149000000D03*
G04 #@! TD*
G04 #@! TO.P,REF\002A\002A,1*
G04 #@! TO.N,N/C*
X125000000Y-79000000D03*
G04 #@! TD*
D11*
G04 #@! TO.P,C8,2*
G04 #@! TO.N,GND*
X107000000Y-133428568D03*
G04 #@! TO.P,C8,1*
G04 #@! TO.N,+5V*
X107000000Y-135928568D03*
G04 #@! TD*
G04 #@! TO.P,C3,1*
G04 #@! TO.N,+5V*
X107000000Y-99642856D03*
G04 #@! TO.P,C3,2*
G04 #@! TO.N,GND*
X107000000Y-97142856D03*
G04 #@! TD*
D12*
G04 #@! TO.P,R16,2*
G04 #@! TO.N,/sheet5BF5087A/OUT*
X59666666Y-106860000D03*
D11*
G04 #@! TO.P,R16,1*
G04 #@! TO.N,+5V*
X59666666Y-96700000D03*
G04 #@! TD*
D12*
G04 #@! TO.P,U3,6*
G04 #@! TO.N,/sheet5BF4FF7B/OUT*
X119120000Y-97142856D03*
G04 #@! TO.P,U3,3*
G04 #@! TO.N,/sheet5BF5087B/OUT*
X111500000Y-102222856D03*
G04 #@! TO.P,U3,5*
G04 #@! TO.N,/BLS/OUT*
X119120000Y-99682856D03*
G04 #@! TO.P,U3,2*
G04 #@! TO.N,+5V*
X111500000Y-99682856D03*
G04 #@! TO.P,U3,4*
G04 #@! TO.N,Net-(U3-Pad4)*
X119120000Y-102222856D03*
D13*
G04 #@! TO.P,U3,1*
G04 #@! TO.N,GND*
X111500000Y-97142856D03*
G04 #@! TD*
G04 #@! TO.P,U2,1*
G04 #@! TO.N,GND*
X111500000Y-88071428D03*
D12*
G04 #@! TO.P,U2,4*
G04 #@! TO.N,Net-(U2-Pad4)*
X119120000Y-93151428D03*
G04 #@! TO.P,U2,2*
G04 #@! TO.N,+5V*
X111500000Y-90611428D03*
G04 #@! TO.P,U2,5*
G04 #@! TO.N,/BLS/OUT*
X119120000Y-90611428D03*
G04 #@! TO.P,U2,3*
G04 #@! TO.N,/sheet5BF5087A/OUT*
X111500000Y-93151428D03*
G04 #@! TO.P,U2,6*
G04 #@! TO.N,/sheet5BF4FF7B/OUT*
X119120000Y-88071428D03*
G04 #@! TD*
D11*
G04 #@! TO.P,C1,1*
G04 #@! TO.N,+5V*
X107000000Y-81500000D03*
G04 #@! TO.P,C1,2*
G04 #@! TO.N,GND*
X107000000Y-79000000D03*
G04 #@! TD*
D12*
G04 #@! TO.P,U1,6*
G04 #@! TO.N,/sheet5BF4FF7B/OUT*
X119120000Y-79000000D03*
G04 #@! TO.P,U1,3*
G04 #@! TO.N,/sheet5BF5035C/OUT*
X111500000Y-84080000D03*
G04 #@! TO.P,U1,5*
G04 #@! TO.N,/BLS/OUT*
X119120000Y-81540000D03*
G04 #@! TO.P,U1,2*
G04 #@! TO.N,+5V*
X111500000Y-81540000D03*
G04 #@! TO.P,U1,4*
G04 #@! TO.N,Net-(U1-Pad4)*
X119120000Y-84080000D03*
D13*
G04 #@! TO.P,U1,1*
G04 #@! TO.N,GND*
X111500000Y-79000000D03*
G04 #@! TD*
D12*
G04 #@! TO.P,R4,2*
G04 #@! TO.N,/sheet5BF5035C/OUT*
X53944444Y-106860000D03*
D11*
G04 #@! TO.P,R4,1*
G04 #@! TO.N,+5V*
X53944444Y-96700000D03*
G04 #@! TD*
G04 #@! TO.P,R5,1*
G04 #@! TO.N,+3V3*
X71304844Y-129760000D03*
D12*
G04 #@! TO.P,R5,2*
G04 #@! TO.N,/CS2*
X71304844Y-119600000D03*
G04 #@! TD*
D11*
G04 #@! TO.P,R15,1*
G04 #@! TO.N,+3V3*
X64700000Y-119600000D03*
D12*
G04 #@! TO.P,R15,2*
G04 #@! TO.N,/CS1*
X64700000Y-129760000D03*
G04 #@! TD*
D11*
G04 #@! TO.P,R3,1*
G04 #@! TO.N,+3V3*
X60850000Y-119600000D03*
D12*
G04 #@! TO.P,R3,2*
G04 #@! TO.N,/CS0*
X60850000Y-129760000D03*
G04 #@! TD*
D11*
G04 #@! TO.P,R13,1*
G04 #@! TO.N,+3V3*
X53150000Y-119600000D03*
D12*
G04 #@! TO.P,R13,2*
G04 #@! TO.N,/MISO*
X53150000Y-129760000D03*
G04 #@! TD*
G04 #@! TO.P,R1,2*
G04 #@! TO.N,/CLK*
X57000000Y-129760000D03*
D11*
G04 #@! TO.P,R1,1*
G04 #@! TO.N,+3V3*
X57000000Y-119600000D03*
G04 #@! TD*
G04 #@! TO.P,C2,2*
G04 #@! TO.N,GND*
X107000000Y-88071428D03*
G04 #@! TO.P,C2,1*
G04 #@! TO.N,+5V*
X107000000Y-90571428D03*
G04 #@! TD*
D13*
G04 #@! TO.P,C4,1*
G04 #@! TO.N,GND*
X47300000Y-125100000D03*
D11*
G04 #@! TO.P,C4,2*
G04 #@! TO.N,+5V*
X45300000Y-125100000D03*
G04 #@! TD*
G04 #@! TO.P,C5,1*
G04 #@! TO.N,+5V*
X107000000Y-108714284D03*
G04 #@! TO.P,C5,2*
G04 #@! TO.N,GND*
X107000000Y-106214284D03*
G04 #@! TD*
G04 #@! TO.P,C6,1*
G04 #@! TO.N,+5V*
X107000000Y-117785712D03*
G04 #@! TO.P,C6,2*
G04 #@! TO.N,GND*
X107000000Y-115285712D03*
G04 #@! TD*
G04 #@! TO.P,C7,2*
G04 #@! TO.N,GND*
X107000000Y-124357140D03*
G04 #@! TO.P,C7,1*
G04 #@! TO.N,+5V*
X107000000Y-126857140D03*
G04 #@! TD*
G04 #@! TO.P,C9,1*
G04 #@! TO.N,+5V*
X107000000Y-145000000D03*
G04 #@! TO.P,C9,2*
G04 #@! TO.N,GND*
X107000000Y-142500000D03*
G04 #@! TD*
D13*
G04 #@! TO.P,U4,1*
G04 #@! TO.N,GND*
X111500000Y-106214284D03*
D12*
G04 #@! TO.P,U4,4*
G04 #@! TO.N,Net-(U4-Pad4)*
X119120000Y-111294284D03*
G04 #@! TO.P,U4,2*
G04 #@! TO.N,+5V*
X111500000Y-108754284D03*
G04 #@! TO.P,U4,5*
G04 #@! TO.N,/BLS/OUT*
X119120000Y-108754284D03*
G04 #@! TO.P,U4,3*
G04 #@! TO.N,/sheet5BF5087C/OUT*
X111500000Y-111294284D03*
G04 #@! TO.P,U4,6*
G04 #@! TO.N,/sheet5BF4FF7B/OUT*
X119120000Y-106214284D03*
G04 #@! TD*
G04 #@! TO.P,U5,6*
G04 #@! TO.N,/sheet5BF4FF7B/OUT*
X119120000Y-115285712D03*
G04 #@! TO.P,U5,3*
G04 #@! TO.N,/sheet5BF51D5C/OUT*
X111500000Y-120365712D03*
G04 #@! TO.P,U5,5*
G04 #@! TO.N,/BLS/OUT*
X119120000Y-117825712D03*
G04 #@! TO.P,U5,2*
G04 #@! TO.N,+5V*
X111500000Y-117825712D03*
G04 #@! TO.P,U5,4*
G04 #@! TO.N,Net-(U5-Pad4)*
X119120000Y-120365712D03*
D13*
G04 #@! TO.P,U5,1*
G04 #@! TO.N,GND*
X111500000Y-115285712D03*
G04 #@! TD*
G04 #@! TO.P,U6,1*
G04 #@! TO.N,GND*
X111500000Y-124357140D03*
D12*
G04 #@! TO.P,U6,4*
G04 #@! TO.N,Net-(U6-Pad4)*
X119120000Y-129437140D03*
G04 #@! TO.P,U6,2*
G04 #@! TO.N,+5V*
X111500000Y-126897140D03*
G04 #@! TO.P,U6,5*
G04 #@! TO.N,/BLS/OUT*
X119120000Y-126897140D03*
G04 #@! TO.P,U6,3*
G04 #@! TO.N,/sheet5BF51D5D/OUT*
X111500000Y-129437140D03*
G04 #@! TO.P,U6,6*
G04 #@! TO.N,/sheet5BF4FF7B/OUT*
X119120000Y-124357140D03*
G04 #@! TD*
G04 #@! TO.P,U7,6*
G04 #@! TO.N,/sheet5BF4FF7B/OUT*
X119120000Y-133428568D03*
G04 #@! TO.P,U7,3*
G04 #@! TO.N,/sheet5BF51D5E/OUT*
X111500000Y-138508568D03*
G04 #@! TO.P,U7,5*
G04 #@! TO.N,/BLS/OUT*
X119120000Y-135968568D03*
G04 #@! TO.P,U7,2*
G04 #@! TO.N,+5V*
X111500000Y-135968568D03*
G04 #@! TO.P,U7,4*
G04 #@! TO.N,Net-(U7-Pad4)*
X119120000Y-138508568D03*
D13*
G04 #@! TO.P,U7,1*
G04 #@! TO.N,GND*
X111500000Y-133428568D03*
G04 #@! TD*
G04 #@! TO.P,U8,1*
G04 #@! TO.N,GND*
X111500000Y-142500000D03*
D12*
G04 #@! TO.P,U8,4*
G04 #@! TO.N,Net-(U8-Pad4)*
X119120000Y-147580000D03*
G04 #@! TO.P,U8,2*
G04 #@! TO.N,+5V*
X111500000Y-145040000D03*
G04 #@! TO.P,U8,5*
G04 #@! TO.N,/BLS/OUT*
X119120000Y-145040000D03*
G04 #@! TO.P,U8,3*
G04 #@! TO.N,/sheet5BF51D5F/OUT*
X111500000Y-147580000D03*
G04 #@! TO.P,U8,6*
G04 #@! TO.N,/sheet5BF4FF7B/OUT*
X119120000Y-142500000D03*
G04 #@! TD*
D11*
G04 #@! TO.P,R2,1*
G04 #@! TO.N,+5V*
X48222222Y-96700000D03*
D12*
G04 #@! TO.P,R2,2*
G04 #@! TO.N,/sheet5BF4FF7B/OUT*
X48222222Y-106860000D03*
G04 #@! TD*
G04 #@! TO.P,R6,2*
G04 #@! TO.N,/sheet5BF5087B/OUT*
X65388888Y-106860000D03*
D11*
G04 #@! TO.P,R6,1*
G04 #@! TO.N,+5V*
X65388888Y-96700000D03*
G04 #@! TD*
G04 #@! TO.P,R7,1*
G04 #@! TO.N,+3V3*
X79364844Y-129760000D03*
D12*
G04 #@! TO.P,R7,2*
G04 #@! TO.N,/CS4*
X79364844Y-119600000D03*
G04 #@! TD*
G04 #@! TO.P,R8,2*
G04 #@! TO.N,/sheet5BF51D5C/OUT*
X76833332Y-106860000D03*
D11*
G04 #@! TO.P,R8,1*
G04 #@! TO.N,+5V*
X76833332Y-96700000D03*
G04 #@! TD*
G04 #@! TO.P,R9,1*
G04 #@! TO.N,+3V3*
X83394844Y-129760000D03*
D12*
G04 #@! TO.P,R9,2*
G04 #@! TO.N,/CS5*
X83394844Y-119600000D03*
G04 #@! TD*
G04 #@! TO.P,R10,2*
G04 #@! TO.N,/sheet5BF51D5D/OUT*
X82555554Y-106860000D03*
D11*
G04 #@! TO.P,R10,1*
G04 #@! TO.N,+5V*
X82555554Y-96700000D03*
G04 #@! TD*
G04 #@! TO.P,R11,1*
G04 #@! TO.N,+3V3*
X91454844Y-129760000D03*
D12*
G04 #@! TO.P,R11,2*
G04 #@! TO.N,/CS7*
X91454844Y-119600000D03*
G04 #@! TD*
G04 #@! TO.P,R12,2*
G04 #@! TO.N,/sheet5BF51D5F/OUT*
X94000000Y-106860000D03*
D11*
G04 #@! TO.P,R12,1*
G04 #@! TO.N,+5V*
X94000000Y-96700000D03*
G04 #@! TD*
D12*
G04 #@! TO.P,R14,2*
G04 #@! TO.N,/BLS/OUT*
X42500000Y-106860000D03*
D11*
G04 #@! TO.P,R14,1*
G04 #@! TO.N,+5V*
X42500000Y-96700000D03*
G04 #@! TD*
G04 #@! TO.P,R17,1*
G04 #@! TO.N,+3V3*
X75334844Y-129760000D03*
D12*
G04 #@! TO.P,R17,2*
G04 #@! TO.N,/CS3*
X75334844Y-119600000D03*
G04 #@! TD*
G04 #@! TO.P,R18,2*
G04 #@! TO.N,/sheet5BF5087C/OUT*
X71111110Y-106860000D03*
D11*
G04 #@! TO.P,R18,1*
G04 #@! TO.N,+5V*
X71111110Y-96700000D03*
G04 #@! TD*
G04 #@! TO.P,R19,1*
G04 #@! TO.N,+3V3*
X87424844Y-129760000D03*
D12*
G04 #@! TO.P,R19,2*
G04 #@! TO.N,/CS6*
X87424844Y-119600000D03*
G04 #@! TD*
G04 #@! TO.P,R20,2*
G04 #@! TO.N,/sheet5BF51D5E/OUT*
X88277776Y-106860000D03*
D11*
G04 #@! TO.P,R20,1*
G04 #@! TO.N,+5V*
X88277776Y-96700000D03*
G04 #@! TD*
D14*
G04 #@! TO.P,Q1,2*
G04 #@! TO.N,+3V3*
X48324655Y-112280000D03*
G04 #@! TO.P,Q1,3*
G04 #@! TO.N,/sheet5BF4FF7B/OUT*
X48324655Y-111010000D03*
D15*
G04 #@! TO.P,Q1,1*
G04 #@! TO.N,/CLK*
X48324655Y-113550000D03*
G04 #@! TD*
G04 #@! TO.P,Q2,1*
G04 #@! TO.N,/CS0*
X53996573Y-113550000D03*
D14*
G04 #@! TO.P,Q2,3*
G04 #@! TO.N,/sheet5BF5035C/OUT*
X53996573Y-111010000D03*
G04 #@! TO.P,Q2,2*
G04 #@! TO.N,+3V3*
X53996573Y-112280000D03*
G04 #@! TD*
G04 #@! TO.P,Q3,2*
G04 #@! TO.N,+3V3*
X65340409Y-112280000D03*
G04 #@! TO.P,Q3,3*
G04 #@! TO.N,/sheet5BF5087B/OUT*
X65340409Y-111010000D03*
D15*
G04 #@! TO.P,Q3,1*
G04 #@! TO.N,/CS2*
X65340409Y-113550000D03*
G04 #@! TD*
G04 #@! TO.P,Q4,1*
G04 #@! TO.N,/CS4*
X76684245Y-113550000D03*
D14*
G04 #@! TO.P,Q4,3*
G04 #@! TO.N,/sheet5BF51D5C/OUT*
X76684245Y-111010000D03*
G04 #@! TO.P,Q4,2*
G04 #@! TO.N,+3V3*
X76684245Y-112280000D03*
G04 #@! TD*
G04 #@! TO.P,Q5,2*
G04 #@! TO.N,+3V3*
X82356163Y-112280000D03*
G04 #@! TO.P,Q5,3*
G04 #@! TO.N,/sheet5BF51D5D/OUT*
X82356163Y-111010000D03*
D15*
G04 #@! TO.P,Q5,1*
G04 #@! TO.N,/CS5*
X82356163Y-113550000D03*
G04 #@! TD*
G04 #@! TO.P,Q6,1*
G04 #@! TO.N,/CS7*
X93700000Y-113550000D03*
D14*
G04 #@! TO.P,Q6,3*
G04 #@! TO.N,/sheet5BF51D5F/OUT*
X93700000Y-111010000D03*
G04 #@! TO.P,Q6,2*
G04 #@! TO.N,+3V3*
X93700000Y-112280000D03*
G04 #@! TD*
G04 #@! TO.P,Q7,2*
G04 #@! TO.N,+3V3*
X42652737Y-112280000D03*
G04 #@! TO.P,Q7,3*
G04 #@! TO.N,/BLS/OUT*
X42652737Y-111010000D03*
D15*
G04 #@! TO.P,Q7,1*
G04 #@! TO.N,/MISO*
X42652737Y-113550000D03*
G04 #@! TD*
G04 #@! TO.P,Q8,1*
G04 #@! TO.N,/CS1*
X59668491Y-113550000D03*
D14*
G04 #@! TO.P,Q8,3*
G04 #@! TO.N,/sheet5BF5087A/OUT*
X59668491Y-111010000D03*
G04 #@! TO.P,Q8,2*
G04 #@! TO.N,+3V3*
X59668491Y-112280000D03*
G04 #@! TD*
G04 #@! TO.P,Q9,2*
G04 #@! TO.N,+3V3*
X71012327Y-112280000D03*
G04 #@! TO.P,Q9,3*
G04 #@! TO.N,/sheet5BF5087C/OUT*
X71012327Y-111010000D03*
D15*
G04 #@! TO.P,Q9,1*
G04 #@! TO.N,/CS3*
X71012327Y-113550000D03*
G04 #@! TD*
G04 #@! TO.P,Q10,1*
G04 #@! TO.N,/CS6*
X88028081Y-113550000D03*
D14*
G04 #@! TO.P,Q10,3*
G04 #@! TO.N,/sheet5BF51D5E/OUT*
X88028081Y-111010000D03*
G04 #@! TO.P,Q10,2*
G04 #@! TO.N,+3V3*
X88028081Y-112280000D03*
G04 #@! TD*
D16*
G04 #@! TO.P,J1,1*
G04 #@! TO.N,GND*
X54600000Y-146100000D03*
D17*
G04 #@! TO.P,J1,2*
G04 #@! TO.N,+5V*
X51100000Y-146100000D03*
G04 #@! TD*
D10*
G04 #@! TO.P,REF\002A\002A,1*
G04 #@! TO.N,N/C*
X40000000Y-148600000D03*
G04 #@! TD*
D18*
G04 #@! TO.P,J2,1*
G04 #@! TO.N,Net-(J2-Pad1)*
X67600000Y-142100000D03*
D19*
G04 #@! TO.P,J2,2*
G04 #@! TO.N,GND*
X67600000Y-139560000D03*
G04 #@! TO.P,J2,3*
G04 #@! TO.N,/CS7*
X70140000Y-142100000D03*
G04 #@! TO.P,J2,4*
G04 #@! TO.N,+3V3*
X70140000Y-139560000D03*
G04 #@! TO.P,J2,5*
G04 #@! TO.N,/CS6*
X72680000Y-142100000D03*
G04 #@! TO.P,J2,6*
G04 #@! TO.N,/MISO*
X72680000Y-139560000D03*
G04 #@! TO.P,J2,7*
G04 #@! TO.N,/CS5*
X75220000Y-142100000D03*
G04 #@! TO.P,J2,8*
G04 #@! TO.N,/CLK*
X75220000Y-139560000D03*
G04 #@! TO.P,J2,9*
G04 #@! TO.N,/CS4*
X77760000Y-142100000D03*
G04 #@! TO.P,J2,10*
G04 #@! TO.N,/CS0*
X77760000Y-139560000D03*
G04 #@! TO.P,J2,11*
G04 #@! TO.N,/CS3*
X80300000Y-142100000D03*
G04 #@! TO.P,J2,12*
G04 #@! TO.N,/CS1*
X80300000Y-139560000D03*
G04 #@! TO.P,J2,13*
G04 #@! TO.N,/CS2*
X82840000Y-142100000D03*
G04 #@! TO.P,J2,14*
G04 #@! TO.N,+3V3*
X82840000Y-139560000D03*
G04 #@! TD*
D11*
G04 #@! TO.P,R21,1*
G04 #@! TO.N,GND*
X41500000Y-135000000D03*
D12*
G04 #@! TO.P,R21,2*
X51660000Y-135000000D03*
G04 #@! TD*
M02*
