G04 #@! TF.GenerationSoftware,KiCad,Pcbnew,5.0.0-4.fc29*
G04 #@! TF.CreationDate,2018-11-21T18:22:53+00:00*
G04 #@! TF.ProjectId,pressure_sense_pcb,70726573737572655F73656E73655F70,rev?*
G04 #@! TF.SameCoordinates,Original*
G04 #@! TF.FileFunction,Soldermask,Bot*
G04 #@! TF.FilePolarity,Negative*
%FSLAX46Y46*%
G04 Gerber Fmt 4.6, Leading zero omitted, Abs format (unit mm)*
G04 Created by KiCad (PCBNEW 5.0.0-4.fc29) date Wed Nov 21 18:22:53 2018*
%MOMM*%
%LPD*%
G01*
G04 APERTURE LIST*
%ADD10C,6.400000*%
%ADD11C,2.000000*%
%ADD12O,2.000000X2.000000*%
%ADD13R,2.000000X2.000000*%
%ADD14O,1.900000X1.450000*%
%ADD15R,1.900000X1.450000*%
%ADD16R,2.800000X2.800000*%
%ADD17C,2.800000*%
%ADD18R,2.127200X2.127200*%
%ADD19O,2.127200X2.127200*%
G04 APERTURE END LIST*
D10*
G04 #@! TO.C,REF\002A\002A*
X40000000Y-79000000D03*
G04 #@! TD*
G04 #@! TO.C,REF\002A\002A*
X125000000Y-149000000D03*
G04 #@! TD*
G04 #@! TO.C,REF\002A\002A*
X125000000Y-79000000D03*
G04 #@! TD*
D11*
G04 #@! TO.C,C8*
X107000000Y-133428568D03*
X107000000Y-135928568D03*
G04 #@! TD*
G04 #@! TO.C,C3*
X107000000Y-99642856D03*
X107000000Y-97142856D03*
G04 #@! TD*
D12*
G04 #@! TO.C,R16*
X59666666Y-106860000D03*
D11*
X59666666Y-96700000D03*
G04 #@! TD*
D12*
G04 #@! TO.C,U3*
X119120000Y-97142856D03*
X111500000Y-102222856D03*
X119120000Y-99682856D03*
X111500000Y-99682856D03*
X119120000Y-102222856D03*
D13*
X111500000Y-97142856D03*
G04 #@! TD*
G04 #@! TO.C,U2*
X111500000Y-88071428D03*
D12*
X119120000Y-93151428D03*
X111500000Y-90611428D03*
X119120000Y-90611428D03*
X111500000Y-93151428D03*
X119120000Y-88071428D03*
G04 #@! TD*
D11*
G04 #@! TO.C,C1*
X107000000Y-81500000D03*
X107000000Y-79000000D03*
G04 #@! TD*
D12*
G04 #@! TO.C,U1*
X119120000Y-79000000D03*
X111500000Y-84080000D03*
X119120000Y-81540000D03*
X111500000Y-81540000D03*
X119120000Y-84080000D03*
D13*
X111500000Y-79000000D03*
G04 #@! TD*
D12*
G04 #@! TO.C,R4*
X53944444Y-106860000D03*
D11*
X53944444Y-96700000D03*
G04 #@! TD*
G04 #@! TO.C,R5*
X71304844Y-129760000D03*
D12*
X71304844Y-119600000D03*
G04 #@! TD*
D11*
G04 #@! TO.C,R15*
X64700000Y-119600000D03*
D12*
X64700000Y-129760000D03*
G04 #@! TD*
D11*
G04 #@! TO.C,R3*
X60850000Y-119600000D03*
D12*
X60850000Y-129760000D03*
G04 #@! TD*
D11*
G04 #@! TO.C,R13*
X53150000Y-119600000D03*
D12*
X53150000Y-129760000D03*
G04 #@! TD*
G04 #@! TO.C,R1*
X57000000Y-129760000D03*
D11*
X57000000Y-119600000D03*
G04 #@! TD*
G04 #@! TO.C,C2*
X107000000Y-88071428D03*
X107000000Y-90571428D03*
G04 #@! TD*
D13*
G04 #@! TO.C,C4*
X47300000Y-125100000D03*
D11*
X45300000Y-125100000D03*
G04 #@! TD*
G04 #@! TO.C,C5*
X107000000Y-108714284D03*
X107000000Y-106214284D03*
G04 #@! TD*
G04 #@! TO.C,C6*
X107000000Y-117785712D03*
X107000000Y-115285712D03*
G04 #@! TD*
G04 #@! TO.C,C7*
X107000000Y-124357140D03*
X107000000Y-126857140D03*
G04 #@! TD*
G04 #@! TO.C,C9*
X107000000Y-145000000D03*
X107000000Y-142500000D03*
G04 #@! TD*
D13*
G04 #@! TO.C,U4*
X111500000Y-106214284D03*
D12*
X119120000Y-111294284D03*
X111500000Y-108754284D03*
X119120000Y-108754284D03*
X111500000Y-111294284D03*
X119120000Y-106214284D03*
G04 #@! TD*
G04 #@! TO.C,U5*
X119120000Y-115285712D03*
X111500000Y-120365712D03*
X119120000Y-117825712D03*
X111500000Y-117825712D03*
X119120000Y-120365712D03*
D13*
X111500000Y-115285712D03*
G04 #@! TD*
G04 #@! TO.C,U6*
X111500000Y-124357140D03*
D12*
X119120000Y-129437140D03*
X111500000Y-126897140D03*
X119120000Y-126897140D03*
X111500000Y-129437140D03*
X119120000Y-124357140D03*
G04 #@! TD*
G04 #@! TO.C,U7*
X119120000Y-133428568D03*
X111500000Y-138508568D03*
X119120000Y-135968568D03*
X111500000Y-135968568D03*
X119120000Y-138508568D03*
D13*
X111500000Y-133428568D03*
G04 #@! TD*
G04 #@! TO.C,U8*
X111500000Y-142500000D03*
D12*
X119120000Y-147580000D03*
X111500000Y-145040000D03*
X119120000Y-145040000D03*
X111500000Y-147580000D03*
X119120000Y-142500000D03*
G04 #@! TD*
D11*
G04 #@! TO.C,R2*
X48222222Y-96700000D03*
D12*
X48222222Y-106860000D03*
G04 #@! TD*
G04 #@! TO.C,R6*
X65388888Y-106860000D03*
D11*
X65388888Y-96700000D03*
G04 #@! TD*
G04 #@! TO.C,R7*
X79364844Y-129760000D03*
D12*
X79364844Y-119600000D03*
G04 #@! TD*
G04 #@! TO.C,R8*
X76833332Y-106860000D03*
D11*
X76833332Y-96700000D03*
G04 #@! TD*
G04 #@! TO.C,R9*
X83394844Y-129760000D03*
D12*
X83394844Y-119600000D03*
G04 #@! TD*
G04 #@! TO.C,R10*
X82555554Y-106860000D03*
D11*
X82555554Y-96700000D03*
G04 #@! TD*
G04 #@! TO.C,R11*
X91454844Y-129760000D03*
D12*
X91454844Y-119600000D03*
G04 #@! TD*
G04 #@! TO.C,R12*
X94000000Y-106860000D03*
D11*
X94000000Y-96700000D03*
G04 #@! TD*
D12*
G04 #@! TO.C,R14*
X42500000Y-106860000D03*
D11*
X42500000Y-96700000D03*
G04 #@! TD*
G04 #@! TO.C,R17*
X75334844Y-129760000D03*
D12*
X75334844Y-119600000D03*
G04 #@! TD*
G04 #@! TO.C,R18*
X71111110Y-106860000D03*
D11*
X71111110Y-96700000D03*
G04 #@! TD*
G04 #@! TO.C,R19*
X87424844Y-129760000D03*
D12*
X87424844Y-119600000D03*
G04 #@! TD*
G04 #@! TO.C,R20*
X88277776Y-106860000D03*
D11*
X88277776Y-96700000D03*
G04 #@! TD*
D14*
G04 #@! TO.C,Q1*
X48324655Y-112280000D03*
X48324655Y-111010000D03*
D15*
X48324655Y-113550000D03*
G04 #@! TD*
G04 #@! TO.C,Q2*
X53996573Y-113550000D03*
D14*
X53996573Y-111010000D03*
X53996573Y-112280000D03*
G04 #@! TD*
G04 #@! TO.C,Q3*
X65340409Y-112280000D03*
X65340409Y-111010000D03*
D15*
X65340409Y-113550000D03*
G04 #@! TD*
G04 #@! TO.C,Q4*
X76684245Y-113550000D03*
D14*
X76684245Y-111010000D03*
X76684245Y-112280000D03*
G04 #@! TD*
G04 #@! TO.C,Q5*
X82356163Y-112280000D03*
X82356163Y-111010000D03*
D15*
X82356163Y-113550000D03*
G04 #@! TD*
G04 #@! TO.C,Q6*
X93700000Y-113550000D03*
D14*
X93700000Y-111010000D03*
X93700000Y-112280000D03*
G04 #@! TD*
G04 #@! TO.C,Q7*
X42652737Y-112280000D03*
X42652737Y-111010000D03*
D15*
X42652737Y-113550000D03*
G04 #@! TD*
G04 #@! TO.C,Q8*
X59668491Y-113550000D03*
D14*
X59668491Y-111010000D03*
X59668491Y-112280000D03*
G04 #@! TD*
G04 #@! TO.C,Q9*
X71012327Y-112280000D03*
X71012327Y-111010000D03*
D15*
X71012327Y-113550000D03*
G04 #@! TD*
G04 #@! TO.C,Q10*
X88028081Y-113550000D03*
D14*
X88028081Y-111010000D03*
X88028081Y-112280000D03*
G04 #@! TD*
D16*
G04 #@! TO.C,J1*
X54600000Y-146100000D03*
D17*
X51100000Y-146100000D03*
G04 #@! TD*
D10*
G04 #@! TO.C,REF\002A\002A*
X40000000Y-148600000D03*
G04 #@! TD*
D18*
G04 #@! TO.C,J2*
X67600000Y-142100000D03*
D19*
X67600000Y-139560000D03*
X70140000Y-142100000D03*
X70140000Y-139560000D03*
X72680000Y-142100000D03*
X72680000Y-139560000D03*
X75220000Y-142100000D03*
X75220000Y-139560000D03*
X77760000Y-142100000D03*
X77760000Y-139560000D03*
X80300000Y-142100000D03*
X80300000Y-139560000D03*
X82840000Y-142100000D03*
X82840000Y-139560000D03*
G04 #@! TD*
D11*
G04 #@! TO.C,R21*
X41500000Y-135000000D03*
D12*
X51660000Y-135000000D03*
G04 #@! TD*
M02*
