G04 #@! TF.GenerationSoftware,KiCad,Pcbnew,5.0.0-4.fc29*
G04 #@! TF.CreationDate,2018-11-21T18:22:53+00:00*
G04 #@! TF.ProjectId,pressure_sense_pcb,70726573737572655F73656E73655F70,rev?*
G04 #@! TF.SameCoordinates,Original*
G04 #@! TF.FileFunction,Profile,NP*
%FSLAX46Y46*%
G04 Gerber Fmt 4.6, Leading zero omitted, Abs format (unit mm)*
G04 Created by KiCad (PCBNEW 5.0.0-4.fc29) date Wed Nov 21 18:22:53 2018*
%MOMM*%
%LPD*%
G01*
G04 APERTURE LIST*
%ADD10C,0.150000*%
G04 APERTURE END LIST*
D10*
X36000000Y-153000000D02*
X129000000Y-153000000D01*
X36000000Y-75000000D02*
X36000000Y-153000000D01*
X129000000Y-75000000D02*
X36000000Y-75000000D01*
X129000000Y-153000000D02*
X129000000Y-75000000D01*
M02*
